-------------------------------------------------------------------------------
Test set: FUCSSPI.AppTest
-------------------------------------------------------------------------------
Tests run: 2, Failures: 0, Errors: 0, Skipped: 0, Time elapsed: 5.236 s - in FUCSSPI.AppTest
